{
	"author": "Revoluar",
	"image": "http://videomercury.com/wp-content/uploads/2016/09/espanol.png",
	"name": "ESTRENOS EN ESPAÑOL",
	"info": "ESTA LISTA HA SIDO CREADA CON EXCLUSIVO ANIMO DE TENER CONCENTRADOS LOS ACCESOS DIRECTOS A ENLACES DE MULTIPLES TERCEROS EN INTERNET, EL CREADOR NO CUENTA CON SERVIDORES QUE ALOJEN NINGUNO DE LOS CONTENIDOS NI OBTIENE NINGUN GENERO NI CLASE DE LUCRO DIRECTO O INDIRECTO POR SU UTILIZACION. DEL MISMO MODO NO SE AUTORIZA SU PUBLICACION NI CIRCULACION FUERA DEL AMBITO PERSONAL DEL CREADOR Y DEL GRUPO DE LOS GRUPOS DE TELEGRAM AUTORIZADOS POR EL , SI LO HAS OBTENIDO DE OTRO LUGAR ESTAS COLABORANDO ACTIVAMENTE A LA DESACTIVACION Y DESAPARICION DE LA LISTA, TODA VEZ QUE SOLO SE COMPARTE POR SU AUTOR CON LA FINALIDAD DE FACILITAR A SUS ALLEGADOS SIN CONOCIMIENTOS INFORMATICOS EL ACCESO A CONTENIDO QUE EL AUTOR CONSIDERA DE SU INTERES",
	"url": "",
	"groups": [
			{
			"name": "TAGS",
			"image": "3000",
			"links": [				
				year:A2020,year:A2019,year:A2018,year:A2017,year:A2016,year:A2015,year:A2014,year:A2013,year:A2012,year:A2011,year:A2010,year:A2009,year:A2008,year:A2007,year:A2006,year:A2005,year:A2004,year:A2003,year:A2002,year:A2001,year:A2000,year:B2000,
	 
				genero:Accion,genero:Animacion,genero:Aventuras,genero:Belico,genero:Biografico,genero:Ciencia ficcion,genero:Comedia,genero:Drama,genero:Fantastico,genero:Hechos reales,genero:Infantil,genero:Intriga,genero:Musical,genero:Romance,genero:Terror,genero:Thriller,genero:Western,
				letra:NUM,letra:A,letra:B,letra:C,letra:D,letra:E,letra:F,letra:G,letra:H,letra:I,letra:J,letra:K,letra:L,letra:M,letra:N,letra:O,letra:P,letra:Q,letra:R,letra:S,letra:T,letra:U,letra:V,letra:W,letra:X,letra:Y,letra:Z,
				
			"/links"]
			},
			{
			"tag": " 1Peliscristal, 1Torrentcristal, 0Torrent4k, 1Animacion, A2021, Letra E, Sudafrica, Netflix, ",
			"name": "Equipo foca (2021)","coloryear": "cyan",
			"image": "https://www.themoviedb.org/t/p/original/sQCMdk3l2XQMSQ07UOQpW9q9reu.jpg",
			"info": "Después de que su mejor amigo muere en un ataque de tiburón, Quinn, una adorable pero tenaz foca, reúne un EQUIPO SEAL para luchar contra una banda de tiburones que se apodera del vecindario. Pero esta alegre banda de focas internacionales no está en absoluto entrenada para tal misión.",
			"genero": "Animacion",
			"links": [
				"Trailer": "https://youtu.be/FT6k3HoS_F8",
				"Directo 1080 byLuar": "https://dl.dropboxusercontent.com/s/vho8qgm9f7s5yzp/Equipo.foca.-2021.-.1080.-.CristalAzul.mkv?dl=0",
				"Torrent 1080 byLuar": "https://www.dropbox.com/s/404d8z06lm940o5/Equipo.foca.-2021.-.1080.-.CristalAzul.mkv.torrent?dl=1",	
			"/links"]
			},
			{
			"tag": " 1Peliscristal, 1Torrentcristal, 0Torrent4k, 1Accion, 1Thriller, A2021, Letra G, EEUU, ",
			"name": "Gunpowder Milkshake (Coctel Explosivo) (2021)","coloryear": "cyan",
			"image": "https://www.themoviedb.org/t/p/original/kEbURPatbWfvUbvgEDfCpmK78Tt.jpg",
			"info": "Eva (Karen Gillan) era lo más importante en la turbulenta vida de su madre, Scarlet (Lena Headey). Pero sus enemigos obligaron a Scarlet a huir abandonándolo todo, incluida a su hija. Años más tarde, Eva se convierte en una asesina a sangre fría siguiendo los pasos de su madre. Después de perder el control en una misión, poniendo a una inocente niña de 8 años en peligro, Eva no tiene más remedio que enfrentarse sin escrúpulos a sus antiguos compinches. Y Scarlet y su banda no tienen más remedio que volver para intentar ayudarla",
			"genero": "Accion, Thriller",
			"links": [
				"Trailer": "https://www.dailymotion.com/video/x82v99z",
				"Directo 1080 byLuar": "https://dl.dropboxusercontent.com/s/ed8r0oc4ja3xcx3/Gunpowder.Milkshake-Coctel.Explosivo.-2021.-.1080.-.CristalAzul.mkv?dl=0",
				"Torrent 1080 byLuar": "https://www.dropbox.com/s/avnlgmbwtk0nsf6/Gunpowder.Milkshake-Coctel.Explosivo.-2021.-.1080.-.CristalAzul.mkv.torrent?dl=1",
				"Torrent BRRip": "magnet:?xt=urn:btih:ACBE0B88E5A47A61EC40A5990A11617BF9FBB757&dn=BRRip",
			"/links"]
			}
	]
}